digraph lockingnow {
	rankdir="LR";
	lock1 [label="acquire dpkg lock"]
	dostuff [label="..."]
	unlock1 [label="release dpkg lock"];
	dpkg [label="run dpkg"];
	relock [label="relock"];

	

	relock -> dostuff;
	lock1 -> dostuff -> unlock1;
	unlock1 -> dpkg [color=red];
	dpkg -> relock [color=red];
	dostuff -> "exit";
}
